…
The second code chunk creates a tibble listing the aisles and how much
they’re ordered from.

``` r
instacart %>% 
  group_by(aisle) %>% 
  summarize(n_ordered = n()) %>% 
  mutate(aisle_rank = min_rank(desc(n_ordered))) 
```

    ## `summarise()` ungrouping output (override with `.groups` argument)

    ## # A tibble: 134 x 3
    ##    aisle                  n_ordered aisle_rank
    ##    <chr>                      <int>      <int>
    ##  1 air fresheners candles      1067        109
    ##  2 asian foods                 7007         53
    ##  3 baby accessories             306        132
    ##  4 baby bath body care          328        131
    ##  5 baby food formula          13198         26
    ##  6 bakery desserts             1501         99
    ##  7 baking ingredients         13088         27
    ##  8 baking supplies decor       1094        106
    ##  9 beauty                       287        134
    ## 10 beers coolers               1839         90
    ## # … with 124 more rows

*Live lecture code*

``` r
instacart %>% 
  count(aisle) %>% 
  arrange(desc(n))
```

    ## # A tibble: 134 x 2
    ##    aisle                              n
    ##    <chr>                          <int>
    ##  1 fresh vegetables              150609
    ##  2 fresh fruits                  150473
    ##  3 packaged vegetables fruits     78493
    ##  4 yogurt                         55240
    ##  5 packaged cheese                41699
    ##  6 water seltzer sparkling water  36617
    ##  7 milk                           32644
    ##  8 chips pretzels                 31269
    ##  9 soy lactosefree                26240
    ## 10 bread                          23635
    ## # … with 124 more rows
…
